EESchema Schematic File Version 5
LIBS:0xa_badge-cache
EELAYER 29 0
EELAYER END
$Descr A4 11693 8268
encoding utf-8
Sheet 1 1
Title ""
Date ""
Rev ""
Comp ""
Comment1 ""
Comment2 ""
Comment3 ""
Comment4 ""
$EndDescr
$Comp
L 0xa_library:0xa_pads X1
U 1 1 5D6EC495
P 2500 5500
F 0 "X1" H 2500 7465 50  0000 C CNN
F 1 "0xa_pads" H 2500 7374 50  0000 C CNN
F 2 "0xa_badge:0xa_pads" H 2500 5300 50  0001 C CNN
F 3 "" H 2500 5300 50  0001 C CNN
	1    2500 5500
	1    0    0    -1  
$EndComp
$Comp
L Device:Battery_Cell BT1
U 1 1 5D71A6A8
P 4500 5400
F 0 "BT1" H 4618 5496 50  0000 L CNN
F 1 "Battery_Cell" H 4618 5405 50  0000 L CNN
F 2 "0xa_badge:Keystone 55 AAA" V 4500 5460 50  0001 C CNN
F 3 "~" V 4500 5460 50  0001 C CNN
	1    4500 5400
	-1   0    0    -1  
$EndComp
$Comp
L Device:Battery_Cell BT2
U 1 1 5D71AA10
P 4500 6400
F 0 "BT2" H 4618 6496 50  0000 L CNN
F 1 "Battery_Cell" H 4618 6405 50  0000 L CNN
F 2 "0xa_badge:Keystone 55 AAA" V 4500 6460 50  0001 C CNN
F 3 "~" V 4500 6460 50  0001 C CNN
	1    4500 6400
	-1   0    0    -1  
$EndComp
$Comp
L MCU_ST_STM32F0:STM32F042F4Px U1
U 1 1 5D744065
P 8000 1500
F 0 "U1" H 7550 2200 50  0000 C CNN
F 1 "STM32F042F4Px" H 8300 2200 50  0000 C CNN
F 2 "Package_SO:TSSOP-20_4.4x6.5mm_P0.65mm" H 7500 800 50  0001 R CNN
F 3 "http://www.st.com/st-web-ui/static/active/en/resource/technical/document/datasheet/DM00105814.pdf" H 8000 1500 50  0001 C CNN
	1    8000 1500
	1    0    0    -1  
$EndComp
Wire Wire Line
	8600 1800 8700 1800
Wire Wire Line
	8600 1900 8700 1900
Text Label 8700 1800 0    50   ~ 0
USB_DM
Text Label 8700 1900 0    50   ~ 0
USB_DP
Text Label 1450 1500 0    50   ~ 0
USB_DM
Text Label 1450 1400 0    50   ~ 0
USB_DP
$Comp
L power:GND #PWR0103
U 1 1 5D747AC3
P 7800 2300
F 0 "#PWR0103" H 7800 2050 50  0001 C CNN
F 1 "GND" H 7805 2127 50  0000 C CNN
F 2 "" H 7800 2300 50  0001 C CNN
F 3 "" H 7800 2300 50  0001 C CNN
	1    7800 2300
	1    0    0    -1  
$EndComp
$Comp
L Regulator_Linear:MIC5504-3.3YM5 U2
U 1 1 5D75A25E
P 3200 1500
F 0 "U2" H 2850 1750 50  0000 C CNN
F 1 "MIC5504-3.3YM5" H 3300 1750 50  0000 C CNN
F 2 "Package_TO_SOT_SMD:SOT-23-5" H 3200 1100 50  0001 C CNN
F 3 "http://ww1.microchip.com/downloads/en/DeviceDoc/MIC550X.pdf" H 2950 1750 50  0001 C CNN
	1    3200 1500
	1    0    0    -1  
$EndComp
$Comp
L Device:Q_DUAL_PMOS_G1S2G2D2S1D1 Q1
U 2 1 5D75B994
P 4700 2350
F 0 "Q1" V 5050 2300 50  0000 L CNN
F 1 "DMP2240UDM" V 4950 2050 50  0000 L CNN
F 2 "Package_TO_SOT_SMD:TSOT-23-6_HandSoldering" H 4750 2350 50  0001 C CNN
F 3 "https://www.mouser.de/datasheet/2/115/DMP2110UVT-1387510.pdf" H 4750 2350 50  0001 C CNN
	2    4700 2350
	0    -1   -1   0   
$EndComp
$Comp
L Transistor_FET:2N7002 Q2
U 1 1 5D76DDD3
P 4600 2950
F 0 "Q2" H 4806 2996 50  0000 L CNN
F 1 "2N7002" H 4806 2905 50  0000 L CNN
F 2 "Package_TO_SOT_SMD:SOT-23" H 4800 2875 50  0001 L CIN
F 3 "https://www.fairchildsemi.com/datasheets/2N/2N7002.pdf" H 4600 2950 50  0001 L CNN
	1    4600 2950
	1    0    0    -1  
$EndComp
Wire Wire Line
	1450 1100 1450 1200
$Comp
L power:VBUS #PWR0104
U 1 1 5D7711E6
P 1450 1100
F 0 "#PWR0104" H 1450 950 50  0001 C CNN
F 1 "VBUS" H 1465 1273 50  0000 C CNN
F 2 "" H 1450 1100 50  0001 C CNN
F 3 "" H 1450 1100 50  0001 C CNN
	1    1450 1100
	1    0    0    -1  
$EndComp
Wire Wire Line
	1450 1200 1350 1200
NoConn ~ 1350 1600
$Comp
L power:GND #PWR0102
U 1 1 5D7476B8
P 1050 1800
F 0 "#PWR0102" H 1050 1550 50  0001 C CNN
F 1 "GND" H 1055 1627 50  0000 C CNN
F 2 "" H 1050 1800 50  0001 C CNN
F 3 "" H 1050 1800 50  0001 C CNN
	1    1050 1800
	1    0    0    -1  
$EndComp
$Comp
L power:GND #PWR0101
U 1 1 5D747124
P 950 1800
F 0 "#PWR0101" H 950 1550 50  0001 C CNN
F 1 "GND" H 955 1627 50  0000 C CNN
F 2 "" H 950 1800 50  0001 C CNN
F 3 "" H 950 1800 50  0001 C CNN
	1    950  1800
	1    0    0    -1  
$EndComp
Wire Wire Line
	1350 1500 1450 1500
Wire Wire Line
	1350 1400 1450 1400
$Comp
L Connector:USB_B_Micro J1
U 1 1 5D7446D3
P 1050 1400
F 0 "J1" H 1107 1867 50  0000 C CNN
F 1 "USB_B_Micro" H 1107 1776 50  0000 C CNN
F 2 "0xa_badge:USB_Micro_B_Female_10118192" H 1200 1350 50  0001 C CNN
F 3 "~" H 1200 1350 50  0001 C CNN
	1    1050 1400
	1    0    0    -1  
$EndComp
$Comp
L power:+BATT #PWR0105
U 1 1 5D773E51
P 4500 5200
F 0 "#PWR0105" H 4500 5050 50  0001 C CNN
F 1 "+BATT" H 4515 5373 50  0000 C CNN
F 2 "" H 4500 5200 50  0001 C CNN
F 3 "" H 4500 5200 50  0001 C CNN
	1    4500 5200
	1    0    0    -1  
$EndComp
$Comp
L Jumper:SolderJumper_2_Open JP1
U 1 1 5D77486F
P 3200 1100
F 0 "JP1" H 3200 1305 50  0000 C CNN
F 1 "SolderJumper_2_Open" H 3200 1214 50  0000 C CNN
F 2 "Jumper:SolderJumper-2_P1.3mm_Open_TrianglePad1.0x1.5mm" H 3200 1100 50  0001 C CNN
F 3 "~" H 3200 1100 50  0001 C CNN
	1    3200 1100
	1    0    0    -1  
$EndComp
$Comp
L power:GND #PWR0106
U 1 1 5D77592D
P 3200 2000
F 0 "#PWR0106" H 3200 1750 50  0001 C CNN
F 1 "GND" H 3205 1827 50  0000 C CNN
F 2 "" H 3200 2000 50  0001 C CNN
F 3 "" H 3200 2000 50  0001 C CNN
	1    3200 2000
	1    0    0    -1  
$EndComp
$Comp
L power:+3.3V #PWR0107
U 1 1 5D795622
P 3700 1000
F 0 "#PWR0107" H 3700 850 50  0001 C CNN
F 1 "+3.3V" H 3715 1173 50  0000 C CNN
F 2 "" H 3700 1000 50  0001 C CNN
F 3 "" H 3700 1000 50  0001 C CNN
	1    3700 1000
	1    0    0    -1  
$EndComp
Wire Wire Line
	3700 1000 3700 1100
Wire Wire Line
	3700 1400 3600 1400
$Comp
L Device:C C1
U 1 1 5D795DD7
P 2700 1850
F 0 "C1" H 2815 1896 50  0000 L CNN
F 1 "1uF" H 2815 1805 50  0000 L CNN
F 2 "Capacitor_SMD:C_0805_2012Metric_Pad1.15x1.40mm_HandSolder" H 2738 1700 50  0001 C CNN
F 3 "~" H 2700 1850 50  0001 C CNN
	1    2700 1850
	1    0    0    -1  
$EndComp
$Comp
L Device:C C2
U 1 1 5D79671C
P 3700 1850
F 0 "C2" H 3815 1896 50  0000 L CNN
F 1 "1uF" H 3815 1805 50  0000 L CNN
F 2 "Capacitor_SMD:C_0805_2012Metric_Pad1.15x1.40mm_HandSolder" H 3738 1700 50  0001 C CNN
F 3 "~" H 3700 1850 50  0001 C CNN
	1    3700 1850
	1    0    0    -1  
$EndComp
Wire Wire Line
	3200 2000 3200 1800
$Comp
L power:GND #PWR0108
U 1 1 5D796A1F
P 2700 2000
F 0 "#PWR0108" H 2700 1750 50  0001 C CNN
F 1 "GND" H 2705 1827 50  0000 C CNN
F 2 "" H 2700 2000 50  0001 C CNN
F 3 "" H 2700 2000 50  0001 C CNN
	1    2700 2000
	1    0    0    -1  
$EndComp
$Comp
L power:GND #PWR0109
U 1 1 5D796C9E
P 3700 2000
F 0 "#PWR0109" H 3700 1750 50  0001 C CNN
F 1 "GND" H 3705 1827 50  0000 C CNN
F 2 "" H 3700 2000 50  0001 C CNN
F 3 "" H 3700 2000 50  0001 C CNN
	1    3700 2000
	1    0    0    -1  
$EndComp
Wire Wire Line
	3700 1700 3700 1400
Connection ~ 3700 1400
Wire Wire Line
	2700 1700 2700 1600
Wire Wire Line
	2700 1400 2800 1400
Wire Wire Line
	2800 1600 2700 1600
Connection ~ 2700 1600
Wire Wire Line
	2700 1600 2700 1400
$Comp
L power:VBUS #PWR0110
U 1 1 5D797219
P 2700 1000
F 0 "#PWR0110" H 2700 850 50  0001 C CNN
F 1 "VBUS" H 2715 1173 50  0000 C CNN
F 2 "" H 2700 1000 50  0001 C CNN
F 3 "" H 2700 1000 50  0001 C CNN
	1    2700 1000
	1    0    0    -1  
$EndComp
Wire Wire Line
	2700 1000 2700 1100
Connection ~ 2700 1400
Wire Wire Line
	3700 1100 3350 1100
Connection ~ 3700 1100
Wire Wire Line
	3700 1100 3700 1400
Wire Wire Line
	3050 1100 2700 1100
Connection ~ 2700 1100
Wire Wire Line
	2700 1100 2700 1400
$Comp
L Device:Q_DUAL_PMOS_G1S2G2D2S1D1 Q1
U 1 1 5D75E00B
P 4700 1000
F 0 "Q1" V 5050 950 50  0000 L CNN
F 1 "DMP2240UDM" V 4950 700 50  0000 L CNN
F 2 "Package_TO_SOT_SMD:TSOT-23-6_HandSoldering" H 4750 1000 50  0001 C CNN
F 3 "https://www.mouser.de/datasheet/2/115/DMP2110UVT-1387510.pdf" H 4750 1000 50  0001 C CNN
	1    4700 1000
	0    -1   -1   0   
$EndComp
Wire Wire Line
	4900 900  5200 900 
Wire Wire Line
	5200 900  5200 2250
Wire Wire Line
	5200 2250 4900 2250
Wire Wire Line
	5200 800  5200 900 
Connection ~ 5200 900 
$Comp
L power:VCC #PWR0111
U 1 1 5D7C4830
P 5200 800
F 0 "#PWR0111" H 5200 650 50  0001 C CNN
F 1 "VCC" H 5217 973 50  0000 C CNN
F 2 "" H 5200 800 50  0001 C CNN
F 3 "" H 5200 800 50  0001 C CNN
	1    5200 800 
	1    0    0    -1  
$EndComp
$Comp
L Device:R R1
U 1 1 5D7C4D86
P 4700 1550
F 0 "R1" H 4770 1596 50  0000 L CNN
F 1 "100k" H 4770 1505 50  0000 L CNN
F 2 "Resistor_SMD:R_0805_2012Metric_Pad1.15x1.40mm_HandSolder" V 4630 1550 50  0001 C CNN
F 3 "~" H 4700 1550 50  0001 C CNN
	1    4700 1550
	1    0    0    -1  
$EndComp
$Comp
L power:GND #PWR0112
U 1 1 5D7C5115
P 4700 1700
F 0 "#PWR0112" H 4700 1450 50  0001 C CNN
F 1 "GND" H 4705 1527 50  0000 C CNN
F 2 "" H 4700 1700 50  0001 C CNN
F 3 "" H 4700 1700 50  0001 C CNN
	1    4700 1700
	1    0    0    -1  
$EndComp
Wire Wire Line
	4700 1400 4700 1250
Wire Wire Line
	4400 2250 4400 1250
Wire Wire Line
	4400 1250 4700 1250
Wire Wire Line
	4400 2250 4500 2250
Connection ~ 4700 1250
Wire Wire Line
	4700 1250 4700 1200
Wire Wire Line
	4400 800  4400 900 
Wire Wire Line
	4400 900  4500 900 
$Comp
L power:+BATT #PWR0113
U 1 1 5D7951E1
P 4400 800
F 0 "#PWR0113" H 4400 650 50  0001 C CNN
F 1 "+BATT" H 4415 973 50  0000 C CNN
F 2 "" H 4400 800 50  0001 C CNN
F 3 "" H 4400 800 50  0001 C CNN
	1    4400 800 
	1    0    0    -1  
$EndComp
$Comp
L power:+3.3V #PWR0114
U 1 1 5D7C6883
P 4400 1150
F 0 "#PWR0114" H 4400 1000 50  0001 C CNN
F 1 "+3.3V" H 4415 1323 50  0000 C CNN
F 2 "" H 4400 1150 50  0001 C CNN
F 3 "" H 4400 1150 50  0001 C CNN
	1    4400 1150
	1    0    0    -1  
$EndComp
Wire Wire Line
	4400 1150 4400 1250
Connection ~ 4400 1250
$Comp
L Device:R R2
U 1 1 5D7C7802
P 4950 2650
F 0 "R2" V 4743 2650 50  0000 C CNN
F 1 "100k" V 4834 2650 50  0000 C CNN
F 2 "Resistor_SMD:R_0805_2012Metric_Pad1.15x1.40mm_HandSolder" V 4880 2650 50  0001 C CNN
F 3 "~" H 4950 2650 50  0001 C CNN
	1    4950 2650
	0    1    1    0   
$EndComp
Wire Wire Line
	5200 2250 5200 2650
Wire Wire Line
	5200 2650 5100 2650
Connection ~ 5200 2250
Wire Wire Line
	4700 2750 4700 2650
Wire Wire Line
	4800 2650 4700 2650
Connection ~ 4700 2650
Wire Wire Line
	4700 2650 4700 2550
$Comp
L power:GND #PWR0115
U 1 1 5D7CEC14
P 4700 3150
F 0 "#PWR0115" H 4700 2900 50  0001 C CNN
F 1 "GND" H 4705 2977 50  0000 C CNN
F 2 "" H 4700 3150 50  0001 C CNN
F 3 "" H 4700 3150 50  0001 C CNN
	1    4700 3150
	1    0    0    -1  
$EndComp
Wire Wire Line
	4400 2950 4400 2250
Connection ~ 4400 2250
$Comp
L power:VCC #PWR0116
U 1 1 5D7CF329
P 7800 800
F 0 "#PWR0116" H 7800 650 50  0001 C CNN
F 1 "VCC" H 7817 973 50  0000 C CNN
F 2 "" H 7800 800 50  0001 C CNN
F 3 "" H 7800 800 50  0001 C CNN
	1    7800 800 
	1    0    0    -1  
$EndComp
$Comp
L power:VCC #PWR0117
U 1 1 5D7CF8EC
P 7900 800
F 0 "#PWR0117" H 7900 650 50  0001 C CNN
F 1 "VCC" H 7917 973 50  0000 C CNN
F 2 "" H 7900 800 50  0001 C CNN
F 3 "" H 7900 800 50  0001 C CNN
	1    7900 800 
	1    0    0    -1  
$EndComp
$Comp
L Device:C C4
U 1 1 5D7D0816
P 6600 1050
F 0 "C4" H 6715 1096 50  0000 L CNN
F 1 "1uF" H 6715 1005 50  0000 L CNN
F 2 "Capacitor_SMD:C_0805_2012Metric_Pad1.15x1.40mm_HandSolder" H 6638 900 50  0001 C CNN
F 3 "~" H 6600 1050 50  0001 C CNN
	1    6600 1050
	1    0    0    -1  
$EndComp
$Comp
L power:VCC #PWR0118
U 1 1 5D7D14AB
P 6600 900
F 0 "#PWR0118" H 6600 750 50  0001 C CNN
F 1 "VCC" H 6617 1073 50  0000 C CNN
F 2 "" H 6600 900 50  0001 C CNN
F 3 "" H 6600 900 50  0001 C CNN
	1    6600 900 
	1    0    0    -1  
$EndComp
$Comp
L power:GND #PWR0119
U 1 1 5D7D1CFF
P 6600 1200
F 0 "#PWR0119" H 6600 950 50  0001 C CNN
F 1 "GND" H 6605 1027 50  0000 C CNN
F 2 "" H 6600 1200 50  0001 C CNN
F 3 "" H 6600 1200 50  0001 C CNN
	1    6600 1200
	1    0    0    -1  
$EndComp
$Comp
L power:VCC #PWR0120
U 1 1 5D7D2109
P 6250 900
F 0 "#PWR0120" H 6250 750 50  0001 C CNN
F 1 "VCC" H 6267 1073 50  0000 C CNN
F 2 "" H 6250 900 50  0001 C CNN
F 3 "" H 6250 900 50  0001 C CNN
	1    6250 900 
	1    0    0    -1  
$EndComp
$Comp
L power:GND #PWR0121
U 1 1 5D7D2113
P 6250 1200
F 0 "#PWR0121" H 6250 950 50  0001 C CNN
F 1 "GND" H 6255 1027 50  0000 C CNN
F 2 "" H 6250 1200 50  0001 C CNN
F 3 "" H 6250 1200 50  0001 C CNN
	1    6250 1200
	1    0    0    -1  
$EndComp
$Comp
L Device:C C3
U 1 1 5D7D211F
P 6250 1050
F 0 "C3" H 6136 1096 50  0000 R CNN
F 1 "100nF" H 6136 1005 50  0000 R CNN
F 2 "Capacitor_SMD:C_0805_2012Metric_Pad1.15x1.40mm_HandSolder" H 6288 900 50  0001 C CNN
F 3 "~" H 6250 1050 50  0001 C CNN
	1    6250 1050
	1    0    0    -1  
$EndComp
$Comp
L power:GND #PWR0122
U 1 1 5D7D2DB3
P 5800 1200
F 0 "#PWR0122" H 5800 950 50  0001 C CNN
F 1 "GND" H 5805 1027 50  0000 C CNN
F 2 "" H 5800 1200 50  0001 C CNN
F 3 "" H 5800 1200 50  0001 C CNN
	1    5800 1200
	1    0    0    -1  
$EndComp
$Comp
L power:VCC #PWR0123
U 1 1 5D7D2DBD
P 5800 900
F 0 "#PWR0123" H 5800 750 50  0001 C CNN
F 1 "VCC" H 5817 1073 50  0000 C CNN
F 2 "" H 5800 900 50  0001 C CNN
F 3 "" H 5800 900 50  0001 C CNN
	1    5800 900 
	1    0    0    -1  
$EndComp
$Comp
L Device:C C5
U 1 1 5D7D2DC9
P 5800 1050
F 0 "C5" H 5686 1096 50  0000 R CNN
F 1 "4,7uF" H 5686 1005 50  0000 R CNN
F 2 "Capacitor_SMD:C_0805_2012Metric_Pad1.15x1.40mm_HandSolder" H 5838 900 50  0001 C CNN
F 3 "~" H 5800 1050 50  0001 C CNN
	1    5800 1050
	1    0    0    -1  
$EndComp
Wire Wire Line
	8700 2000 8600 2000
Wire Wire Line
	8700 2100 8600 2100
Text Label 8700 2000 0    50   ~ 0
SWDIO
Text Label 8700 2100 0    50   ~ 0
SWCLK
$Comp
L Device:R R3
U 1 1 5D7D8F60
P 7300 2550
F 0 "R3" H 7370 2596 50  0000 L CNN
F 1 "100k" H 7370 2505 50  0000 L CNN
F 2 "Resistor_SMD:R_0805_2012Metric_Pad1.15x1.40mm_HandSolder" V 7230 2550 50  0001 C CNN
F 3 "~" H 7300 2550 50  0001 C CNN
	1    7300 2550
	1    0    0    -1  
$EndComp
$Comp
L power:GND #PWR0124
U 1 1 5D7D9437
P 7300 2700
F 0 "#PWR0124" H 7300 2450 50  0001 C CNN
F 1 "GND" H 7305 2527 50  0000 C CNN
F 2 "" H 7300 2700 50  0001 C CNN
F 3 "" H 7300 2700 50  0001 C CNN
	1    7300 2700
	1    0    0    -1  
$EndComp
$Comp
L power:VBUS #PWR0126
U 1 1 5D7FE106
P 3800 4800
F 0 "#PWR0126" H 3800 4650 50  0001 C CNN
F 1 "VBUS" H 3815 4973 50  0000 C CNN
F 2 "" H 3800 4800 50  0001 C CNN
F 3 "" H 3800 4800 50  0001 C CNN
	1    3800 4800
	1    0    0    -1  
$EndComp
Wire Wire Line
	3800 4800 3800 4900
Wire Wire Line
	3900 5000 3900 4800
Text Label 3600 5200 0    50   ~ 0
12b
Wire Wire Line
	3600 5200 3500 5200
Wire Wire Line
	3500 5300 3900 5300
Wire Wire Line
	3900 5300 3900 5400
$Comp
L power:GND #PWR0128
U 1 1 5D800D31
P 3900 5400
F 0 "#PWR0128" H 3900 5150 50  0001 C CNN
F 1 "GND" H 3905 5227 50  0000 C CNN
F 2 "" H 3900 5400 50  0001 C CNN
F 3 "" H 3900 5400 50  0001 C CNN
	1    3900 5400
	1    0    0    -1  
$EndComp
$Comp
L power:VCC #PWR0127
U 1 1 5D8045B2
P 3900 4800
F 0 "#PWR0127" H 3900 4650 50  0001 C CNN
F 1 "VCC" H 3917 4973 50  0000 C CNN
F 2 "" H 3900 4800 50  0001 C CNN
F 3 "" H 3900 4800 50  0001 C CNN
	1    3900 4800
	1    0    0    -1  
$EndComp
$Comp
L Connector:Conn_01x06_Male J2
U 1 1 5D808255
P 10050 1800
F 0 "J2" H 10022 1774 50  0000 R CNN
F 1 "Conn_01x06_Male" H 10022 1683 50  0000 R CNN
F 2 "Connector_Harwin:Harwin_M20-89006xx_1x06_P2.54mm_Horizontal" H 10050 1800 50  0001 C CNN
F 3 "~" H 10050 1800 50  0001 C CNN
	1    10050 1800
	-1   0    0    -1  
$EndComp
$Comp
L Switch:SW_Push SW2
U 1 1 5D809845
P 7300 1300
F 0 "SW2" V 7350 1650 50  0000 R CNN
F 1 "Reset" V 7259 1650 50  0000 R CNN
F 2 "Button_Switch_SMD:SW_SPST_PTS810" H 7300 1500 50  0001 C CNN
F 3 "~" H 7300 1500 50  0001 C CNN
	1    7300 1300
	0    -1   -1   0   
$EndComp
$Comp
L power:GND #PWR0129
U 1 1 5D80ABF1
P 7300 1500
F 0 "#PWR0129" H 7300 1250 50  0001 C CNN
F 1 "GND" H 7305 1327 50  0000 C CNN
F 2 "" H 7300 1500 50  0001 C CNN
F 3 "" H 7300 1500 50  0001 C CNN
	1    7300 1500
	1    0    0    -1  
$EndComp
Wire Wire Line
	7300 1100 7300 1000
Wire Wire Line
	7300 1000 7400 1000
$Comp
L power:GND #PWR0130
U 1 1 5D80C8A4
P 9750 2200
F 0 "#PWR0130" H 9750 1950 50  0001 C CNN
F 1 "GND" H 9755 2027 50  0000 C CNN
F 2 "" H 9750 2200 50  0001 C CNN
F 3 "" H 9750 2200 50  0001 C CNN
	1    9750 2200
	1    0    0    -1  
$EndComp
$Comp
L power:VCC #PWR0131
U 1 1 5D80D307
P 9750 1500
F 0 "#PWR0131" H 9750 1350 50  0001 C CNN
F 1 "VCC" H 9767 1673 50  0000 C CNN
F 2 "" H 9750 1500 50  0001 C CNN
F 3 "" H 9750 1500 50  0001 C CNN
	1    9750 1500
	1    0    0    -1  
$EndComp
Wire Wire Line
	9850 1600 9750 1600
Wire Wire Line
	9750 1600 9750 1500
Wire Wire Line
	9850 2000 9750 2000
Wire Wire Line
	9750 2000 9750 2200
NoConn ~ 9850 2100
Wire Wire Line
	9850 1800 9750 1800
Text Label 9750 1800 2    50   ~ 0
NRST
Wire Wire Line
	9850 1700 9750 1700
Wire Wire Line
	9850 1900 9750 1900
Text Label 9750 1700 2    50   ~ 0
SWDIO
Text Label 9750 1900 2    50   ~ 0
SWCLK
$Comp
L power:GND #PWR0132
U 1 1 5D810028
P 3600 3900
F 0 "#PWR0132" H 3600 3650 50  0001 C CNN
F 1 "GND" H 3605 3727 50  0000 C CNN
F 2 "" H 3600 3900 50  0001 C CNN
F 3 "" H 3600 3900 50  0001 C CNN
	1    3600 3900
	1    0    0    -1  
$EndComp
Wire Wire Line
	3600 3900 3600 3800
Wire Wire Line
	3600 3800 3500 3800
$Comp
L power:GND #PWR0133
U 1 1 5D81173A
P 4500 6500
F 0 "#PWR0133" H 4500 6250 50  0001 C CNN
F 1 "GND" H 4505 6327 50  0000 C CNN
F 2 "" H 4500 6500 50  0001 C CNN
F 3 "" H 4500 6500 50  0001 C CNN
	1    4500 6500
	1    0    0    -1  
$EndComp
$Comp
L power:+BATT #PWR0134
U 1 1 5D8152F8
P 1400 3700
F 0 "#PWR0134" H 1400 3550 50  0001 C CNN
F 1 "+BATT" H 1415 3873 50  0000 C CNN
F 2 "" H 1400 3700 50  0001 C CNN
F 3 "" H 1400 3700 50  0001 C CNN
	1    1400 3700
	1    0    0    -1  
$EndComp
Wire Wire Line
	1400 3700 1400 3800
Wire Wire Line
	1400 3800 1500 3800
Text Label 7200 1000 2    50   ~ 0
NRST
Wire Wire Line
	7200 1000 7300 1000
Connection ~ 7300 1000
$Comp
L Jumper:SolderJumper_2_Open JP3
U 1 1 5D8245E1
P 4500 5850
F 0 "JP3" V 4500 5600 50  0000 L CNN
F 1 "SolderJumper_2_Open" V 4591 5650 50  0001 L CNN
F 2 "Jumper:SolderJumper-2_P1.3mm_Bridged2Bar_RoundedPad1.0x1.5mm" H 4500 5850 50  0001 C CNN
F 3 "~" H 4500 5850 50  0001 C CNN
	1    4500 5850
	0    1    1    0   
$EndComp
Wire Wire Line
	3500 5600 4500 5600
Connection ~ 4500 5600
Wire Wire Line
	8700 1000 8600 1000
Wire Wire Line
	8700 1100 8600 1100
Wire Wire Line
	8700 1200 8600 1200
Wire Wire Line
	8700 1300 8600 1300
Wire Wire Line
	8700 1400 8600 1400
Wire Wire Line
	8700 1500 8600 1500
Wire Wire Line
	8700 1600 8600 1600
Wire Wire Line
	8700 1700 8600 1700
Wire Wire Line
	7300 1700 7400 1700
Wire Wire Line
	7300 1800 7400 1800
Wire Wire Line
	7300 2200 7000 2200
Wire Wire Line
	6550 2100 6650 2100
Connection ~ 6550 2100
Wire Wire Line
	7050 2100 7300 2100
Connection ~ 7300 2200
Wire Wire Line
	6550 2200 6550 2100
Connection ~ 7300 2100
Wire Wire Line
	6550 2000 6550 2100
$Comp
L Switch:SW_Push SW1
U 1 1 5D7DAA0E
P 6850 2100
F 0 "SW1" H 6850 2385 50  0000 C CNN
F 1 "DFU" H 6850 2294 50  0000 C CNN
F 2 "Button_Switch_SMD:SW_SPST_PTS810" H 6850 2300 50  0001 C CNN
F 3 "~" H 6850 2300 50  0001 C CNN
	1    6850 2100
	1    0    0    -1  
$EndComp
$Comp
L power:VCC #PWR0125
U 1 1 5D7DBA6E
P 6550 2000
F 0 "#PWR0125" H 6550 1850 50  0001 C CNN
F 1 "VCC" H 6567 2173 50  0000 C CNN
F 2 "" H 6550 2000 50  0001 C CNN
F 3 "" H 6550 2000 50  0001 C CNN
	1    6550 2000
	1    0    0    -1  
$EndComp
Wire Wire Line
	7300 2200 7300 2100
Wire Wire Line
	7300 2400 7300 2300
Wire Wire Line
	7300 2100 7400 2100
Wire Wire Line
	6700 2200 6550 2200
$Comp
L Jumper:SolderJumper_2_Open JP2
U 1 1 5D7D9831
P 6850 2200
F 0 "JP2" H 6700 2100 50  0000 C CNN
F 1 "DFU" H 6950 2100 50  0000 C CNN
F 2 "Jumper:SolderJumper-2_P1.3mm_Open_TrianglePad1.0x1.5mm" H 6850 2200 50  0001 C CNN
F 3 "~" H 6850 2200 50  0001 C CNN
	1    6850 2200
	1    0    0    -1  
$EndComp
Wire Wire Line
	7400 2000 7300 2000
Wire Wire Line
	7300 2300 7200 2300
Connection ~ 7300 2300
Wire Wire Line
	7300 2300 7300 2200
Text Label 7300 2000 2    50   ~ 0
PB1
Text Label 7200 2300 2    50   ~ 0
PB8
Text Label 7300 1700 2    50   ~ 0
PF0
Text Label 7300 1800 2    50   ~ 0
PF1
Text Label 8700 1000 0    50   ~ 0
PA0
Text Label 8700 1100 0    50   ~ 0
PA1
Text Label 8700 1200 0    50   ~ 0
PA2
Text Label 8700 1300 0    50   ~ 0
PA3
Text Label 8700 1400 0    50   ~ 0
PA4
Text Label 8700 1500 0    50   ~ 0
PA5
Text Label 8700 1600 0    50   ~ 0
PA6
Text Label 8700 1700 0    50   ~ 0
PA7
Wire Wire Line
	3500 4900 3800 4900
Wire Wire Line
	3500 5000 3900 5000
Wire Wire Line
	3600 4700 3500 4700
Wire Wire Line
	3600 4600 3500 4600
Wire Wire Line
	3600 4500 3500 4500
Wire Wire Line
	3600 4400 3500 4400
Wire Wire Line
	3600 4300 3500 4300
Wire Wire Line
	3600 4200 3500 4200
Text Label 3600 4200 0    50   ~ 0
1b
Text Label 3600 4300 0    50   ~ 0
2b
Text Label 3600 4400 0    50   ~ 0
3b
Text Label 3600 4500 0    50   ~ 0
4b
Text Label 3600 4600 0    50   ~ 0
5b
Text Label 3600 4700 0    50   ~ 0
6b
Wire Wire Line
	1400 4200 1500 4200
Wire Wire Line
	1400 4300 1500 4300
Wire Wire Line
	1400 4400 1500 4400
Wire Wire Line
	1400 4500 1500 4500
Wire Wire Line
	1400 4600 1500 4600
Wire Wire Line
	1400 4700 1500 4700
Text Label 1400 4200 2    50   ~ 0
1t
Text Label 1400 4300 2    50   ~ 0
2t
Text Label 1400 4400 2    50   ~ 0
3t
Text Label 1400 4500 2    50   ~ 0
4t
Text Label 1400 4600 2    50   ~ 0
5t
Text Label 1400 4700 2    50   ~ 0
6t
Wire Wire Line
	1400 5200 1500 5200
Text Label 1400 5200 2    50   ~ 0
12t
Wire Wire Line
	3600 5400 3500 5400
Wire Wire Line
	3600 5500 3500 5500
Wire Wire Line
	3600 5700 3500 5700
Wire Wire Line
	3600 5800 3500 5800
Wire Wire Line
	3600 5900 3500 5900
Wire Wire Line
	3600 6000 3500 6000
Wire Wire Line
	3600 6100 3500 6100
Wire Wire Line
	3600 6200 3500 6200
Wire Wire Line
	3600 6300 3500 6300
Wire Wire Line
	3600 6400 3500 6400
Wire Wire Line
	3600 6500 3500 6500
Wire Wire Line
	3600 6700 3500 6700
Wire Wire Line
	3600 6800 3500 6800
Wire Wire Line
	3600 6900 3500 6900
Wire Wire Line
	3600 7000 3500 7000
Wire Wire Line
	3600 7100 3500 7100
Wire Wire Line
	3600 7200 3500 7200
Wire Wire Line
	1400 7200 1500 7200
Wire Wire Line
	1400 7100 1500 7100
Wire Wire Line
	1400 7000 1500 7000
Wire Wire Line
	1500 6600 1400 6600
Wire Wire Line
	1500 6500 1400 6500
Wire Wire Line
	1500 6800 1400 6800
Wire Wire Line
	1500 6400 1400 6400
Wire Wire Line
	1500 6900 1400 6900
Wire Wire Line
	1500 6700 1400 6700
Wire Wire Line
	1400 6100 1500 6100
Wire Wire Line
	1500 5900 1400 5900
Wire Wire Line
	1500 5600 1400 5600
Wire Wire Line
	1500 5700 1400 5700
Wire Wire Line
	1500 5500 1400 5500
Wire Wire Line
	1500 5800 1400 5800
Wire Wire Line
	1400 6300 1500 6300
Wire Wire Line
	1400 6200 1500 6200
Wire Wire Line
	1500 6000 1400 6000
Wire Wire Line
	1400 5400 1500 5400
Text Label 1400 5400 2    50   ~ 0
14t
Text Label 1400 5500 2    50   ~ 0
15t
Text Label 1400 5600 2    50   ~ 0
16t
Text Label 1400 5700 2    50   ~ 0
17t
Text Label 1400 5800 2    50   ~ 0
18t
Text Label 1400 5900 2    50   ~ 0
19t
Text Label 1400 6000 2    50   ~ 0
20t
Text Label 1400 6100 2    50   ~ 0
21t
Text Label 1400 6200 2    50   ~ 0
22t
Text Label 1400 6300 2    50   ~ 0
23t
Text Label 1400 6400 2    50   ~ 0
24t
Text Label 1400 6500 2    50   ~ 0
25t
Text Label 1400 6600 2    50   ~ 0
26t
Text Label 1400 6700 2    50   ~ 0
27t
Text Label 1400 6800 2    50   ~ 0
28t
Text Label 1400 6900 2    50   ~ 0
29t
Text Label 1400 7000 2    50   ~ 0
30t
Text Label 1400 7100 2    50   ~ 0
31t
Text Label 1400 7200 2    50   ~ 0
32t
Text Label 3600 5400 0    50   ~ 0
14b
Text Label 3600 5500 0    50   ~ 0
15b
Text Label 3600 5700 0    50   ~ 0
17b
Text Label 3600 5800 0    50   ~ 0
18b
Text Label 3600 5900 0    50   ~ 0
19b
Text Label 3600 6000 0    50   ~ 0
20b
Text Label 3600 6100 0    50   ~ 0
21b
Text Label 3600 6200 0    50   ~ 0
22b
Text Label 3600 6300 0    50   ~ 0
23b
Text Label 3600 6400 0    50   ~ 0
24b
Text Label 3600 6500 0    50   ~ 0
25b
Text Label 3600 6700 0    50   ~ 0
27b
Text Label 3600 6800 0    50   ~ 0
28b
Text Label 3600 6900 0    50   ~ 0
29b
Text Label 3600 7000 0    50   ~ 0
30b
Text Label 3600 7100 0    50   ~ 0
31b
Text Label 3600 7200 0    50   ~ 0
32b
$Comp
L power:VBUS #PWR0135
U 1 1 5D8664C7
P 1200 4800
F 0 "#PWR0135" H 1200 4650 50  0001 C CNN
F 1 "VBUS" H 1215 4973 50  0000 C CNN
F 2 "" H 1200 4800 50  0001 C CNN
F 3 "" H 1200 4800 50  0001 C CNN
	1    1200 4800
	-1   0    0    -1  
$EndComp
$Comp
L power:VCC #PWR0136
U 1 1 5D8664D2
P 1100 4800
F 0 "#PWR0136" H 1100 4650 50  0001 C CNN
F 1 "VCC" H 1117 4973 50  0000 C CNN
F 2 "" H 1100 4800 50  0001 C CNN
F 3 "" H 1100 4800 50  0001 C CNN
	1    1100 4800
	-1   0    0    -1  
$EndComp
$Comp
L power:GND #PWR0137
U 1 1 5D8664DD
P 1100 5400
F 0 "#PWR0137" H 1100 5150 50  0001 C CNN
F 1 "GND" H 1105 5227 50  0000 C CNN
F 2 "" H 1100 5400 50  0001 C CNN
F 3 "" H 1100 5400 50  0001 C CNN
	1    1100 5400
	-1   0    0    -1  
$EndComp
Wire Wire Line
	1100 5300 1100 5400
Wire Wire Line
	1100 5300 1500 5300
Wire Wire Line
	1100 5000 1100 4800
Wire Wire Line
	1100 5000 1500 5000
Wire Wire Line
	1200 4800 1200 4900
Wire Wire Line
	1200 4900 1500 4900
$Comp
L power:+BATT #PWR0138
U 1 1 5D868C26
P 1000 4800
F 0 "#PWR0138" H 1000 4650 50  0001 C CNN
F 1 "+BATT" H 1015 4973 50  0000 C CNN
F 2 "" H 1000 4800 50  0001 C CNN
F 3 "" H 1000 4800 50  0001 C CNN
	1    1000 4800
	1    0    0    -1  
$EndComp
$Comp
L power:+BATT #PWR0139
U 1 1 5D8695ED
P 4000 4800
F 0 "#PWR0139" H 4000 4650 50  0001 C CNN
F 1 "+BATT" H 4015 4973 50  0000 C CNN
F 2 "" H 4000 4800 50  0001 C CNN
F 3 "" H 4000 4800 50  0001 C CNN
	1    4000 4800
	1    0    0    -1  
$EndComp
Wire Wire Line
	4000 5100 4000 4800
Wire Wire Line
	3500 5100 4000 5100
Wire Wire Line
	1000 5100 1000 4800
Wire Wire Line
	1000 5100 1500 5100
$Comp
L power:GND #PWR0140
U 1 1 5D881C61
P 6150 2550
F 0 "#PWR0140" H 6150 2300 50  0001 C CNN
F 1 "GND" H 6155 2377 50  0000 C CNN
F 2 "" H 6150 2550 50  0001 C CNN
F 3 "" H 6150 2550 50  0001 C CNN
	1    6150 2550
	1    0    0    -1  
$EndComp
$Comp
L Device:R R4
U 1 1 5D881C6D
P 6150 2100
F 0 "R4" H 6081 2146 50  0000 R CNN
F 1 "1k" H 6081 2055 50  0000 R CNN
F 2 "Resistor_SMD:R_0805_2012Metric_Pad1.15x1.40mm_HandSolder" V 6080 2100 50  0001 C CNN
F 3 "~" H 6150 2100 50  0001 C CNN
	1    6150 2100
	1    0    0    -1  
$EndComp
$Comp
L Device:LED D1
U 1 1 5D8824A3
P 6150 2400
F 0 "D1" V 6189 2283 50  0000 R CNN
F 1 "LED" V 6098 2283 50  0000 R CNN
F 2 "LED_SMD:LED_1206_3216Metric_Pad1.42x1.75mm_HandSolder" H 6150 2400 50  0001 C CNN
F 3 "~" H 6150 2400 50  0001 C CNN
	1    6150 2400
	0    -1   -1   0   
$EndComp
Text Label 6050 1850 2    50   ~ 0
PB1
Wire Wire Line
	6050 1850 6150 1850
Wire Wire Line
	6150 1850 6150 1950
Wire Wire Line
	4500 5500 4500 5600
Wire Wire Line
	4500 5600 4500 5700
Wire Wire Line
	4500 6000 4500 6100
Wire Wire Line
	3500 6600 3900 6600
Wire Wire Line
	3900 6600 3900 6100
Wire Wire Line
	3900 6100 4500 6100
Connection ~ 4500 6100
Wire Wire Line
	4500 6100 4500 6200
$Comp
L power:GND #PWR0141
U 1 1 5D8137C6
P 1400 4000
F 0 "#PWR0141" H 1400 3750 50  0001 C CNN
F 1 "GND" H 1405 3827 50  0000 C CNN
F 2 "" H 1400 4000 50  0001 C CNN
F 3 "" H 1400 4000 50  0001 C CNN
	1    1400 4000
	1    0    0    -1  
$EndComp
Wire Wire Line
	1400 4000 1400 3900
Wire Wire Line
	1400 3900 1500 3900
$EndSCHEMATC
