(module "Keystone 55 AAA" (layer F.Cu) (tedit 5D76B612)
  (fp_text reference "BT2" (at 0 -3.3 180) (layer Cmts.User)
    (effects (font (size 1 1) (thickness 0.15)))
  )
  (fp_text value "Battery_Cell" (at 0 -2 180) (layer F.Fab)
    (effects (font (size 1 1) (thickness 0.15)))
  )
  (fp_text user "Battery" (at 0 0 180) (layer Cmts.User)
    (effects (font (size 1 1) (thickness 0.15)))
  )
  (pad "2" smd roundrect (at 11.312 0) (size 4 5.1) (layers "F.Cu" "F.Paste" "F.Mask") (roundrect_rratio 0.125))
  (pad "1" smd roundrect (at -11.312 0) (size 4 5.1) (layers "F.Cu" "F.Paste" "F.Mask") (roundrect_rratio 0.125))
  (pad "2" smd roundrect (at 24.352 0) (size 4 2.34) (layers "F.Cu" "F.Paste" "F.Mask") (roundrect_rratio 0.125))
  (pad "1" smd roundrect (at -24.352 0) (size 4 2.34) (layers "F.Cu" "F.Paste" "F.Mask") (roundrect_rratio 0.125))
  (model "${KIPRJMOD}/keystone-PN55.STEP"
    (offset (xyz 20.5 0 0.5))
    (scale (xyz 1 1 1))
    (rotate (xyz -90 0 90))
  )
  (model "${KIPRJMOD}/keystone-PN55.STEP"
    (offset (xyz -20.5 0 0.5))
    (scale (xyz 1 1 1))
    (rotate (xyz 90 180 90))
  )
  (model "${KIPRJMOD}/battery-AAA.step"
    (offset (xyz 22.2 0 7.2))
    (scale (xyz 1 1 1))
    (rotate (xyz 0 90 0))
  )
)
